<svg xmlns="http://www.w3.org/2000/svg" width="28.863" height="28.863" viewBox="0 0 28.863 28.863">
  <g id="active" transform="translate(1)">
    <path id="Tracé_3022" data-name="Tracé 3022" d="M242.214,0a7.546,7.546,0,1,0,7.546,7.546A7.555,7.555,0,0,0,242.214,0Z" transform="translate(-221.898)" fill="#14171a"/>
    <path id="Tracé_3023" data-name="Tracé 3023" d="M137.288,345.976a4.644,4.644,0,1,1-4.644-4.644A4.644,4.644,0,0,1,137.288,345.976Zm0,0" transform="translate(-121.034 -322.757)" fill="none" stroke="#14171a" stroke-width="2"/>
    <path id="Tracé_3024" data-name="Tracé 3024" d="M20.688,57.742c-.124,0-.246.018-.372.018A9.848,9.848,0,0,1,11.95,42.685c-.114,0-.225-.017-.34-.017a8.136,8.136,0,0,0-8.127,8.127v3.237A7.784,7.784,0,0,1,.71,59.99a2.031,2.031,0,0,0,1.321,3.575H21.187A2.032,2.032,0,0,0,22.5,59.98a7.788,7.788,0,0,1-1.809-2.238Zm0,0" transform="translate(0 -40.346)" fill="#f5f8fa" stroke="#14171a" stroke-width="2"/>
  </g>
</svg>
